BSMM-8740 - Fall 2023 – causal_via_prediction_r
…
keep = union(keep_y, keep_d)

Concatenate treatment with union of controls and regress y on that and print out estimate

# Need `` surrounding variables since some variables start with underscore
formula = paste(
  "lnw_2016 ~ black + ", 
  paste0("`", tidy_keep, "`", collapse = " + ")
)
formula = as.formula(formula)

lm(formula, data = nlsy) %>% broom::tidy()

# A tibble: 147 × 5
   term                  estimate std.error statistic       p.value
   <chr>                    <dbl>     <dbl>     <dbl>         <dbl>
 1 (Intercept)             1.92      0.313       6.15 0.00000000108
 2 black                  -0.235     0.0912     -2.57 0.0102       
 3 educ                    0.0506    0.0109      4.62 0.00000425   
 4 afqt                    0.0310    0.0113      2.74 0.00633      
 5 youth_bothbio_01_1997   0.205     0.194       1.05 0.292        
 6 p4_001_1997            -0.0557    0.0316     -1.76 0.0787       
 7 `_BGypc9_001_3`        -0.181     0.0563     -3.21 0.00134      
 8 `_BGypc12_02b4`        -0.216     0.0862     -2.51 0.0123       
 9 `_BGyysaq_29b7`         0.258     0.0839      3.07 0.00219      
10 `_BGyfp_yhro_21`       -0.372     0.130      -2.87 0.00413      
# ℹ 137 more rows
…
