BSMM-8740 - Fall 2023 - Design Matrices with Recipes
…
> transformed_te

# A tibble: 80 × 6
    carbon hydrogen oxygen nitrogen sulfur   HHV
     <dbl>    <dbl>  <dbl>    <dbl>  <dbl> <dbl>
 1 -0.738    0.675    47.2     0.3    0.22  18.3
 2 -0.998    0.0696   48.1     2.85   0.34  17.6
 3 -0.998    0.0628   49.1     2.4    0.3   17.2
 4 -0.331    0.944    37.3     1.8    0.5   18.9
 5  0.0541   0.999    42.8     0.2    0     20.5
 6 -0.996    0.0874   41.7     0.7    0.2   18.5
 7 -0.978   -0.207    54.1     1.19   0.51  15.1
 8 -0.669   -0.743    33.8     0.95   0.2   16.2
 9 -0.901   -0.433    31.1     0.14   4.9   11.1
10 -0.814   -0.581    23.7     4.63   1.05  10.8
# ℹ 70 more rows
…
Principal Component Analysis1

Code

> pca <- basic %>% 
+   recipes::step_pca(
+     recipes::all_predictors()
+     , threshold = .9
+   )

# A tibble: 59 × 4
   variable                type      role      source  
   <chr>                   <list>    <chr>     <chr>   
 1 AngleCh1                <chr [2]> predictor original
 2 AreaCh1                 <chr [2]> predictor original
 3 AvgIntenCh1             <chr [2]> predictor original
 4 AvgIntenCh2             <chr [2]> predictor original
 5 AvgIntenCh3             <chr [2]> predictor original
 6 AvgIntenCh4             <chr [2]> predictor original
 7 ConvexHullAreaRatioCh1  <chr [2]> predictor original
 8 ConvexHullPerimRatioCh1 <chr [2]> predictor original
 9 DiffIntenDensityCh1     <chr [2]> predictor original
10 DiffIntenDensityCh3     <chr [2]> predictor original
# ℹ 49 more rows
…
Kernel PCA - distance to each centroid

> dist_to_classes <- basic %>% 
+   recipes::step_classdist(recipes::all_predictors(), class = "Class") %>%
+   # Take log of the new distance features
+   recipes::step_log(starts_with("classdist"))
> 
> dist_to_classes <- recipes::prep(dist_to_classes, verbose = FALSE)
> 
> # All variables are retained plus an additional one for each class
> dist_to_classes <- recipes::bake(dist_to_classes, new_data = seg_test, matches("[Cc]lass"))
> dist_to_classes

# A tibble: 1,010 × 3
   Class classdist_PS classdist_WS
   <fct>        <dbl>        <dbl>
 1 PS            1.53         1.74
 2 PS            1.35         1.46
 3 WS            1.71         1.53
 4 WS            1.75         1.61
 5 PS            1.47         1.65
 6 WS            1.48         1.47
 7 WS            1.49         1.55
 8 WS            1.55         1.40
 9 PS            1.54         1.71
10 PS            1.55         1.57
# ℹ 1,000 more rows
…
